<svg width="104" height="89" viewBox="0 0 104 89" fill="none" xmlns="http://www.w3.org/2000/svg">
<path d="M11.6817 35C19.1817 29 34.8484 28 41.6817 30C58.6817 34 57.1817 27.5 75.1817 24C89.5817 21.2 97.6817 21.5 101.182 27.5C104.973 34 104.782 45.2 93.1817 48C81.5817 50.8 69.0151 64.1667 64.1817 70.5C59.8484 76.5 52.6817 89.4687 29.1817 88C13.1817 87 3.18171 70.5 2.18171 61.5C1.45076 54.9214 2.60212 42.2637 11.6817 35Z" fill="url(#paint0_linear)" fill-opacity="0.75"/>
<rect x="26.6817" y="13" width="64" height="64" rx="10" fill="#800152"/>
<circle cx="19.6817" cy="74" r="4" fill="white"/>
<path d="M5.8795 28.2131C8.57443 28.973 8.69274 27.4478 11.2961 25.5844C13.1469 24.5477 16.5189 24.2744 18.6992 21.4378C20.3401 19.303 19.8081 16.2042 17.44 14.8489C15.0718 13.4936 7.61043 12.493 3.78082 17.2316C-1.0062 23.1548 2.51084 27.2633 5.8795 28.2131Z" fill="#D12121" fill-opacity="0.55"/>
<circle cx="95.5" cy="4.5" r="4.5" fill="#D12121" fill-opacity="0.55"/>
<path d="M55.7429 34.7792C55.6582 35.8793 54.7909 38.4814 54.3677 39.645C52.9926 44.5108 57.5411 58.1561 53.5215 61.3294C49.502 64.5028 38.8184 63.6565 37.5491 63.6565C36.2797 63.6565 35.222 60.589 35.0104 58.1561C34.7988 55.7232 37.8664 38.3756 39.4531 34.7792C41.0397 31.1827 47.598 26.4227 51.9349 27.0574C56.2717 27.6921 55.8486 33.4041 55.7429 34.7792Z" stroke="white" stroke-width="2"/>
<path d="M62.2571 34.8366C62.3418 35.9367 63.2091 38.5388 63.6322 39.7024C65.0074 44.5682 60.4589 58.2135 64.4785 61.3868C68.498 64.5602 79.1816 63.7139 80.4509 63.7139C81.7203 63.7139 82.778 60.6464 82.9896 58.2135C83.2011 55.7806 80.1336 38.433 78.5469 34.8366C76.9603 31.2402 70.402 26.4801 66.0651 27.1148C61.7282 27.7495 62.1514 33.4615 62.2571 34.8366Z" stroke="white" stroke-width="2"/>
<path d="M64.3109 38.9045C63.38 38.8199 60.9291 36.5422 60.1887 35.4139H59.022V37.6352C60.7144 39.4687 65.0513 42.3952 66.638 45.2512C68.2762 48.2 68.0131 49.7996 67.8015 50.2228C67.59 50.6459 64.8398 52.021 65.5802 52.2325C66.3206 52.4441 67.4842 51.3863 68.1189 50.9632C68.6266 50.6247 68.8241 49.0592 68.8593 48.3188C69.5998 49.9054 68.4362 54.7712 67.8015 55.7232C67.2938 56.4848 66.4617 57.0983 66.1091 57.3099C65.7918 57.6977 65.559 58.2407 67.1669 57.3099C68.7747 56.379 69.5292 53.5371 69.7055 52.2325C70.2344 52.6556 69.1766 56.781 69.1766 57.0983C69.1766 57.4156 67.3784 59.5312 67.8015 59.5312C68.2246 59.5312 69.494 57.6272 69.1766 58.4734C68.8593 59.3196 68.7535 61.2236 68.9651 61.2236C69.1343 61.2236 69.3882 59.8133 69.494 59.1081C69.494 59.2491 69.5363 59.6793 69.7055 60.2716C69.9171 61.0121 71.1864 62.2814 71.2922 62.0699C71.398 61.8583 69.9171 59.4254 69.7055 58.7908C69.494 58.1561 69.9171 55.1943 70.2344 54.5596C70.4883 54.0519 70.6928 52.5146 70.7633 51.8094C71.2922 52.021 76.0522 56.3579 76.3695 56.5694C76.6869 56.781 76.7926 58.4734 77.4273 57.8388C77.935 57.331 75.8054 55.018 74.6771 53.925H77.2158C77.5331 53.925 79.966 55.4059 79.1198 54.2423C78.2735 53.0788 74.4655 53.3961 73.9366 53.3961C73.4078 53.3961 72.0326 52.1268 71.1864 51.3863C70.5094 50.794 69.9171 48.0367 69.7055 46.7321C70.3402 47.0494 72.8789 47.1552 73.7251 46.8379C74.5713 46.5205 75.6291 48.5303 75.8406 49.0592C76.0099 49.4823 76.3343 49.6586 76.4753 49.6939C76.2638 47.3668 75.3118 47.0494 74.8886 46.5205C74.4655 45.9916 73.0904 46.309 72.0326 46.4148C70.9749 46.5205 69.9171 45.9916 69.5998 45.7801C69.3459 45.6108 67.5195 43.2414 66.638 42.0779C66.3912 41.6547 65.9398 40.6816 66.1091 40.1739C66.3206 39.5392 69.5998 39.8565 70.446 39.645C71.123 39.4757 73.1962 41.1964 74.1482 42.0779C74.7829 42.3952 76.0522 42.9241 76.0522 42.501C76.0522 42.0779 73.7956 40.7733 72.6673 40.1739C73.5488 40.1033 75.4598 39.8988 76.0522 39.645C76.7926 39.3276 76.4753 39.1161 76.0522 38.9045C75.6291 38.693 72.9846 39.645 72.35 39.645C71.8422 39.645 70.6575 39.1513 70.1286 38.9045C70.9749 38.1641 70.8691 37.0005 70.8691 36.1543C70.8691 35.4773 71.4332 33.9682 71.7153 33.2983C70.0229 34.0387 70.0229 36.1543 70.1286 37.0005C70.2344 37.8467 69.7055 38.4814 69.2824 38.9045C68.9439 39.243 68.2246 39.0456 67.9073 38.9045C69.5998 37.6352 68.8593 34.7792 67.9073 32.981C67.1457 31.5424 65.4039 30.5481 64.6282 30.2307C65.6155 31.1475 67.6534 33.6156 67.9073 36.1543C68.2246 39.3276 65.4744 39.0103 64.3109 38.9045Z" fill="white"/>
<path d="M53.6993 38.9045C54.6301 38.8199 56.9011 36.8815 57.6415 35.7532L58.9882 35.4139V37.6352C57.2957 39.4687 52.9588 42.3952 51.3722 45.2512C49.7339 48.2 49.997 49.7996 50.2086 50.2228C50.4202 50.6459 53.1704 52.021 52.4299 52.2325C51.6895 52.4441 50.5259 51.3863 49.8913 50.9632C49.3835 50.6247 49.1861 49.0592 49.1508 48.3188C48.4104 49.9054 49.5739 54.7712 50.2086 55.7232C50.7163 56.4848 51.5485 57.0983 51.901 57.3099C52.2184 57.6977 52.4511 58.2407 50.8433 57.3099C49.2354 56.379 48.4809 53.5371 48.3046 52.2325C47.7757 52.6556 48.8335 56.781 48.8335 57.0983C48.8335 57.4156 50.6317 59.5312 50.2086 59.5312C49.7855 59.5312 48.5162 57.6272 48.8335 58.4734C49.1508 59.3196 49.2566 61.2236 49.045 61.2236C48.8758 61.2236 48.6219 59.8133 48.5162 59.1081C48.5162 59.2491 48.4738 59.6793 48.3046 60.2716C48.093 61.0121 46.8237 62.2814 46.7179 62.0699C46.6122 61.8583 48.093 59.4254 48.3046 58.7908C48.5162 58.1561 48.093 55.1943 47.7757 54.5596C47.5218 54.0519 47.3173 52.5146 47.2468 51.8094C46.7179 52.021 41.9579 56.3579 41.6406 56.5694C41.3233 56.781 41.2175 58.4734 40.5828 57.8388C40.0751 57.331 42.2047 55.018 43.333 53.925H40.7944C40.477 53.925 38.0441 55.4059 38.8904 54.2423C39.7366 53.0788 43.5446 53.3961 44.0735 53.3961C44.6024 53.3961 45.9775 52.1268 46.8237 51.3863C47.5007 50.794 48.093 48.0367 48.3046 46.7321C47.6699 47.0494 45.1313 47.1552 44.285 46.8379C43.4388 46.5205 42.381 48.5303 42.1695 49.0592C42.0002 49.4823 41.6759 49.6586 41.5348 49.6939C41.7464 47.3668 42.6984 47.0494 43.1215 46.5205C43.5446 45.9916 44.9197 46.309 45.9775 46.4148C47.0353 46.5205 48.093 45.9916 48.4104 45.7801C48.6642 45.6108 50.4907 43.2414 51.3722 42.0779C51.619 41.6547 52.0703 40.6816 51.901 40.1739C51.6895 39.5392 48.4104 39.8565 47.5642 39.645C46.8872 39.4757 44.8139 41.1964 43.8619 42.0779C43.2273 42.3952 41.9579 42.9241 41.9579 42.501C41.9579 42.0779 44.2145 40.7733 45.3428 40.1739C44.4613 40.1033 42.5503 39.8988 41.9579 39.645C41.2175 39.3276 41.5348 39.1161 41.9579 38.9045C42.381 38.693 45.0255 39.645 45.6602 39.645C46.1679 39.645 47.3526 39.1513 47.8815 38.9045C47.0353 38.1641 47.141 37.0005 47.141 36.1543C47.141 35.4773 46.5769 33.9682 46.2948 33.2983C47.9873 34.0387 47.9873 36.1543 47.8815 37.0005C47.7757 37.8467 48.3046 38.4814 48.7277 38.9045C49.0662 39.243 49.7855 39.0456 50.1028 38.9045C48.4104 37.6352 49.1508 34.7792 50.1028 32.981C50.8644 31.5424 52.6062 30.5481 53.3819 30.2307C52.3947 31.1475 50.3567 33.6156 50.1028 36.1543C49.7855 39.3276 52.5357 39.0103 53.6993 38.9045Z" fill="white"/>
<path d="M57.6415 27.1494V35.8218L59 37.5645L60.2589 35.9316C60.2129 33.0774 60.4379 27.1494 60.3277 27.1494H57.6415Z" fill="white"/>
<defs>
<linearGradient id="paint0_linear" x1="24.46" y1="55.2038" x2="81.0281" y2="55.6778" gradientUnits="userSpaceOnUse">
<stop stop-color="#800152"/>
<stop offset="1" stop-color="#D12121" stop-opacity="0.55"/>
</linearGradient>
</defs>
</svg>
